[api-updater (non-obsolete-error-filter)] 2/15/2022 4:02:23 PM : Starting D:/Programs/Unity/2020.3.0f1/Editor/Data/Tools/ScriptUpdater/APIUpdater.NonObsoleteApiUpdaterDetector.exe
[api-updater (non-obsolete-error-filter)] 
----------------------------------
jit/startup time      : 1825.1235ms
moved types parse time: 76ms
candidates parse time : 1ms
C# parse time         : 1206ms
candidates check time : 81ms
console write time    : 321ms

[api-updater (non-obsolete-error-filter)] 2/16/2022 1:41:22 PM : Starting D:/Programs/Unity/2020.3.0f1/Editor/Data/Tools/ScriptUpdater/APIUpdater.NonObsoleteApiUpdaterDetector.exe
[api-updater (non-obsolete-error-filter)] 
----------------------------------
jit/startup time      : 1758.5997ms
moved types parse time: 80ms
candidates parse time : 2ms
C# parse time         : 841ms
candidates check time : 137ms
console write time    : 0ms

[api-updater (non-obsolete-error-filter)] 2/16/2022 1:41:47 PM : Starting D:/Programs/Unity/2020.3.0f1/Editor/Data/Tools/ScriptUpdater/APIUpdater.NonObsoleteApiUpdaterDetector.exe
[api-updater (non-obsolete-error-filter)] 
----------------------------------
jit/startup time      : 86.2108ms
moved types parse time: 69ms
candidates parse time : 1ms
C# parse time         : 239ms
candidates check time : 148ms
console write time    : 0ms

[api-updater (non-obsolete-error-filter)] 2/16/2022 1:42:20 PM : Starting D:/Programs/Unity/2020.3.0f1/Editor/Data/Tools/ScriptUpdater/APIUpdater.NonObsoleteApiUpdaterDetector.exe
[api-updater (non-obsolete-error-filter)] 
----------------------------------
jit/startup time      : 87.4194ms
moved types parse time: 58ms
candidates parse time : 1ms
C# parse time         : 238ms
candidates check time : 160ms
console write time    : 0ms

[api-updater (non-obsolete-error-filter)] 2/16/2022 1:42:36 PM : Starting D:/Programs/Unity/2020.3.0f1/Editor/Data/Tools/ScriptUpdater/APIUpdater.NonObsoleteApiUpdaterDetector.exe
[api-updater (non-obsolete-error-filter)] 
----------------------------------
jit/startup time      : 87.4211ms
moved types parse time: 59ms
candidates parse time : 1ms
C# parse time         : 224ms
candidates check time : 81ms
console write time    : 0ms

[api-updater (non-obsolete-error-filter)] 2/16/2022 1:42:40 PM : Starting D:/Programs/Unity/2020.3.0f1/Editor/Data/Tools/ScriptUpdater/APIUpdater.NonObsoleteApiUpdaterDetector.exe
[api-updater (non-obsolete-error-filter)] 
----------------------------------
jit/startup time      : 89.7587ms
moved types parse time: 61ms
candidates parse time : 1ms
C# parse time         : 221ms
candidates check time : 78ms
console write time    : 0ms

[api-updater (non-obsolete-error-filter)] 2/16/2022 1:42:59 PM : Starting D:/Programs/Unity/2020.3.0f1/Editor/Data/Tools/ScriptUpdater/APIUpdater.NonObsoleteApiUpdaterDetector.exe
[api-updater (non-obsolete-error-filter)] 
----------------------------------
jit/startup time      : 90.7558ms
moved types parse time: 59ms
candidates parse time : 1ms
C# parse time         : 224ms
candidates check time : 59ms
console write time    : 0ms

[api-updater (non-obsolete-error-filter)] 2/16/2022 1:43:20 PM : Starting D:/Programs/Unity/2020.3.0f1/Editor/Data/Tools/ScriptUpdater/APIUpdater.NonObsoleteApiUpdaterDetector.exe
[api-updater (non-obsolete-error-filter)] 
----------------------------------
jit/startup time      : 87.7658ms
moved types parse time: 60ms
candidates parse time : 1ms
C# parse time         : 218ms
candidates check time : 58ms
console write time    : 0ms

[api-updater (non-obsolete-error-filter)] 2/16/2022 1:43:47 PM : Starting D:/Programs/Unity/2020.3.0f1/Editor/Data/Tools/ScriptUpdater/APIUpdater.NonObsoleteApiUpdaterDetector.exe
[api-updater (non-obsolete-error-filter)] 
----------------------------------
jit/startup time      : 87.0957ms
moved types parse time: 59ms
candidates parse time : 1ms
C# parse time         : 223ms
candidates check time : 68ms
console write time    : 0ms

[api-updater (non-obsolete-error-filter)] 2/16/2022 1:44:05 PM : Starting D:/Programs/Unity/2020.3.0f1/Editor/Data/Tools/ScriptUpdater/APIUpdater.NonObsoleteApiUpdaterDetector.exe
[api-updater (non-obsolete-error-filter)] 
----------------------------------
jit/startup time      : 84.8075ms
moved types parse time: 63ms
candidates parse time : 1ms
C# parse time         : 222ms
candidates check time : 67ms
console write time    : 1ms

[api-updater (non-obsolete-error-filter)] 2/16/2022 1:44:11 PM : Starting D:/Programs/Unity/2020.3.0f1/Editor/Data/Tools/ScriptUpdater/APIUpdater.NonObsoleteApiUpdaterDetector.exe
[api-updater (non-obsolete-error-filter)] 
----------------------------------
jit/startup time      : 92.7814ms
moved types parse time: 58ms
candidates parse time : 1ms
C# parse time         : 257ms
candidates check time : 93ms
console write time    : 0ms

